     1                                  
     2                                  %if 0
     3                                  
     4                                  RxD_BOOT - RxDOS Boot Sector write utility
     5                                  
     6                                  This product is distributed AS IS and contains no warranty
     7                                  whatsoever, including warranty of merchantability or
     8                                  fitness for a particular purpose.
     9                                  
    10                                  (c) Copyright 1990, 1999. Mike Podanoffsky
    11                                  
    12                                  This is free software; you can redistribute it and/or modify
    13                                  it under the terms of the GNU General Public License, see
    14                                  the file LICENSE.TXT.
    15                                  
    16                                  %endif
    17                                  
    18                                  %include "RXDMACRO.MAC"
     1                              <1> [list -]
    30                              <1> [list -]
    32                              <1> [list -]
    19                                  %include "RXDSTRUC.MAC"
     1                              <1> [list -]
    20                                  
    21                                  				cpu 8086
    22                                  
    23                                  %ifidni __OUTPUT_FORMAT__, obj
    24                                  	segment RXD_BOOT align=16 class=RXD_BOOT use16 public start=100h
    25                                  %else
    26                                  			org 100h
    27                                  %endif
    28                                  	segment RXD_BOOT
    29                                  
    30                                  
    31                                  		; Write Stub
    32                                  		;
    33                                  		; The stub loads at the normal 100h load address and writes
    34                                  		; the boot sector to drive A:
    35                                  		;
    36                                  		; New for RxDOS 7.20N+:
    37                                  		; - It's a raw .COM format file. The assembled boot sector
    38                                  		;   is appended to the executable file.
    39                                  		; - It uses DOS input/output functions.
    40                                  		; - It can use either Int25/26 or direct device calls.
    41                                  		;   (The default is to use Int25/26.)
    42                                  		; - Better command line parsing.
    43                                  		; - More or less robust checking if device is valid.
    44                                  RxDOS_WRITESTUB:
    45                                  
    46 00000000 FA                      	cli
    47 00000001 FC                      	cld
    48 00000002 8CC8                    	mov ax,cs
    49 00000004 8ED8                    	mov ds,ax
    50 00000006 8EC0                    	mov es,ax
    51 00000008 8ED0                    	mov ss,ax
    52 0000000A BC[2409]                	mov sp, RxDOS_WRITESTUB_STACK
    53 0000000D FB                      	sti
    54                                  
    55                                  %ifdef DEBUGINT24
    56                                  	mov ax, 2524h
    57                                  	mov dx, int24
    58                                  	int 21h
    59                                  %endif
    60                                  
    61 0000000E 813E[420F]55AA          	cmp word [eop+510],0AA55h			; at [eop], the bootsector starts
    62 00000014 740B                    	je RxDOS_WRITESTUB_04				;  does the "magic" word match? -->
    63 00000016 BE[EA04]                	mov si, RxDOS_NoBootImage			; otherwise error
    64 00000019 E8A602                  	call _DisplayMsg
    65 0000001C B8034CCD21              	Int21 TerminateProcess, 03
    66                                  
    67                                  
    68                                  RxDOS_WRITESTUB_04:
    69                                  
    70                                  		; see if drive specified
    71 00000021 5589E5                  	Entry
    72 00000024 50C746FE0000            	def	drive, 0000				; A:
    73 0000002A 50C746FC0000            	def	WriteOnce, FALSE
    74 00000030 50C746FA0000            	def	SilentMode, FALSE
    75 00000036 50C746F80100            	def	isRemovable, TRUE
    76 0000003C 50C746F60000            	def	UseDevice, FALSE
    77                                  
    78 00000042 31DB                    	xor bx, bx
    79 00000044 0A1E8000                	or bl, byte [ 80h ]				; count of command line characters
    80 00000048 7415                    	jz RxDOS_WRITESTUB_36_1_z			;  no command line, default to A: -->
    81                                  
    82 0000004A C68781000D              	mov byte [ bx + 81h ], ControlM			; make sure command line is terminated
    83 0000004F BE8100                  	mov si, 81h
    84                                  
    85                                  		; switch processing
    86                                  RxDOS_WRITESTUB_06:
    87 00000052 AC                      	lodsb						; scan command line
    88 00000053 3C6172063C7B730224-     	_uppercase al
    88 0000005C DF                 
    89 0000005D 3C0D                    	cmp al, ControlM				; command line end ?
    90                                  RxDOS_WRITESTUB_36_1_z:
    91 0000005F 7503E99600              	ifz RxDOS_WRITESTUB_36				; yes, use default drive (A:) or specified -->
    92                                  
    93 00000064 3C20                    	cmp al, 32					; space ?
    94 00000066 74EA                    	je RxDOS_WRITESTUB_06				; skip any leading spaces -->
    95 00000068 3C09                    	cmp al, 9					; tab ?
    96 0000006A 74E6                    	je RxDOS_WRITESTUB_06				; skip any leading tabs -->
    97 0000006C 3C2D                    	cmp al, '-'					; switch character ?
    98 0000006E 7404                    	je RxDOS_WRITESTUB_08				; yes -->
    99 00000070 3C2F                    	cmp al, '/'					; switch character ?
   100 00000072 7544                    	jne RxDOS_WRITESTUB_22				; no, parse in drive
   101                                  
   102                                  		; see if /1 (write once )
   103                                  RxDOS_WRITESTUB_08:
   104 00000074 AC                      	lodsb						; get character behind switch character
   105 00000075 3C6172063C7B730224-     	_uppercase					; so we'll need less compares
   105 0000007E DF                 
   106                                  
   107 0000007F 3C48                    	cmp al, 'H'					; help ?
   108 00000081 7404                    	je RxDOS_WRITESTUB_10				; yes -->
   109 00000083 3C3F                    	cmp al, '?'					; help ?
   110 00000085 750B                    	jne RxDOS_WRITESTUB_12				; no -->
   111                                  
   112                                  RxDOS_WRITESTUB_10:
   113 00000087 BE[FE02]                	mov si, RxDOS_Usage
   114 0000008A E83502                  	call _DisplayMsg
   115 0000008D B8FF4CCD21              	Int21 TerminateProcess, 255
   116                                  
   117                                  RxDOS_WRITESTUB_12:
   118 00000092 3C31                    	cmp al, '1'					; write once ?
   119 00000094 7507                    	jnz RxDOS_WRITESTUB_14				; no -->
   120 00000096 C746FC0100              	storarg _WriteOnce, TRUE			; set write once mode
   121 0000009B EB2C                    	jmp short RxDOS_WRITESTUB_24			;  look if next character space, proceed
   122                                  
   123                                  		; see if /s (silent mode)
   124                                  RxDOS_WRITESTUB_14:
   125 0000009D 3C53                    	cmp al, 'S'					; silent mode ?
   126 0000009F 750C                    	jnz RxDOS_WRITESTUB_16				; no -->
   127 000000A1 C746FA0100              	storarg _SilentMode, TRUE			; set silent mode
   128 000000A6 C746FC0100              	storarg _WriteOnce, TRUE			; silent sets write once mode also
   129 000000AB EB1C                    	jmp short RxDOS_WRITESTUB_24			;  look if next character space, proceed
   130                                  
   131                                  		; see if /d (use device driver for disk access)
   132                                  RxDOS_WRITESTUB_16:
   133 000000AD 3C44                    	cmp al, 'D'					; device driver?
   134 000000AF 7533                    	jnz RxDOS_WRITESTUB_30				; no, invalid switch -->
   135 000000B1 C746F60100              	storarg _UseDevice, TRUE			; set device driver mode
   136 000000B6 EB11                    	jmp short RxDOS_WRITESTUB_24			;  look if next character space, proceed
   137                                  
   138                                  		; drive letter processing
   139                                  RxDOS_WRITESTUB_22:
   140 000000B8 2C41                    	sub al, 'A'					; A - Z 
   141 000000BA 72CB                    	jb RxDOS_WRITESTUB_10				; Below 'A' is invalid, display help
   142 000000BC 3C19                    	cmp al, 'Z'-'A'					;
   143 000000BE 77C7                    	ja RxDOS_WRITESTUB_10				; Above 'Z' is invalid, display help
   144                                  
   145 000000C0 8846FE                  	mov byte [ _drive + bp ], al			; set drive if other than A:
   146 000000C3 AC                      	lodsb
   147 000000C4 3C3A                    	cmp al,':'					; is next character a colon?
   148 000000C6 7401                    	je RxDOS_WRITESTUB_24				;  then eat it and proceed after the colon -->
   149 000000C8 4E                      	dec si						; otherwise proceed at next character
   150                                  
   151                                  RxDOS_WRITESTUB_24:
   152 000000C9 AC                      	lodsb
   153 000000CA 3C2F                    	cmp al, '/'
   154 000000CC 74A6                    	je RxDOS_WRITESTUB_08
   155 000000CE 3C2D                    	cmp al, '-'
   156 000000D0 74A2                    	je RxDOS_WRITESTUB_08				; is switch character. parse -->
   157                                  
   158 000000D2 3C20                    	cmp al, 32
   159 000000D4 7503E979FF              	je RxDOS_WRITESTUB_06
   160 000000D9 3C09                    	cmp al, 9
   161 000000DB 7503E972FF              	je RxDOS_WRITESTUB_06				; is blank. get next -->
   162 000000E0 3C0D                    	cmp al, ControlM				; end of command line ?
   163 000000E2 7416                    	je RxDOS_WRITESTUB_36				;  then proceed with selected drive -->
   164                                  
   165                                  RxDOS_WRITESTUB_30:					; invalid parameter
   166 000000E4 BE[0D04]                	mov si, RxDOS_InvalidParameter
   167 000000E7 E8D801                  	call _DisplayMsg
   168 000000EA B8014CCD21              	Int21 TerminateProcess, 01
   169                                  
   170                                  RxDOS_WRITESTUB_InvalidDrive:
   171 000000EF BE[BC04]                	mov si, RxDOS_InvalidDrive
   172 000000F2 E8CD01                  	call _DisplayMsg
   173 000000F5 B8024CCD21              	Int21 TerminateProcess, 02
   174                                  
   175                                  		; test if drive removable
   176                                  RxDOS_WRITESTUB_36:
   177 000000FA 8A5EFE                  	mov bl, byte [ _drive + bp ]
   178 000000FD FEC3                    	inc bl
   179 000000FF B80844CD21              	Int21 IoControl, 08h				; is drive removable ?
   180 00000104 72E9                    	jc RxDOS_WRITESTUB_InvalidDrive			; invalid drive -->
   181                                  
   182 00000106 F7D0                    	not ax						; 0000 if removable,
   183 00000108 83E001                  	and ax, 1					; ... convert to true or false
   184 0000010B 8946F8                  	mov word [ _isRemovable + bp ], ax		;
   185                                  
   186 0000010E 8A5EFE                  	mov bl, byte [ _drive + bp ]
   187 00000111 FEC3                    	inc bl
   188 00000113 B80944CD21              	Int21 IoControl, 09h				; is drive remote ?
   189 00000118 7206                    	jc RxDOS_WRITESTUB_40				; ignore possible unsupported error -->
   190                                  
   191 0000011A F7C20010                	test dx, 1000h					; remote flag set ?
   192 0000011E 75CF                    	jnz RxDOS_WRITESTUB_InvalidDrive		; cannot set invalid drive -->
   193                                  
   194                                  		; Write message
   195                                  RxDOS_WRITESTUB_40:
   196 00000120 8A56FE                  	mov dl, byte [ _drive + bp ]
   197 00000123 80C241                  	add dl, 'A'
   198 00000126 8816[4C04]              	mov byte [ RxDOS_PressKeyWhenReady_Drive ], dl
   199                                  
   200 0000012A 837EFA00                	cmp word [ _SilentMode + bp ], byte 0		; silent mode ?
   201 0000012E 751C                    	jnz RxDOS_WRITESTUB_46				; ok to write -->
   202                                  
   203 00000130 BE[2104]                	mov si, RxDOS_PressKeyWhenReady
   204 00000133 E88C01                  	call _DisplayMsg
   205                                  
   206                                  RxDOS_WRITESTUB_42:
   207 00000136 B408                    	mov ah, 08h
   208 00000138 CD21                    	int 21h						; wait for character from StdIn
   209 0000013A E89301                  	call getanswer
   210 0000013D 75F7                    	jnz RxDOS_WRITESTUB_42				;  Loop if no answer found
   211                                  
   212 0000013F 9C                      	pushf
   213 00000140 B402                    	mov ah, 02h
   214 00000142 88C2                    	mov dl, al
   215 00000144 CD21                    	int 21h						; display answer
   216 00000146 9D                      	popf
   217                                  
   218 00000147 7303E99000              	ifc RxDOS_WRITESTUB_80				; Answer was no -->
   219                                  							;  otherwise: Yes, proceed
   220                                  RxDOS_WRITESTUB_46:
   221 0000014C 0E                      	push cs
   222 0000014D 07                      	pop es						; restore es
   223                                  
   224                                  RxDOS_WRITESTUB_48:
   225                                  
   226 0000014E 31D2                    	xor dx, dx
   227 00000150 8A56FE                  	mov dl, byte [ _drive + bp ]			; pass drive
   228 00000153 8B46F6                  	mov ax, word [ _UseDevice + bp ]		; pass UseDevice flag
   229 00000156 B90400                  	mov cx, DEVICEREAD				; read
   230 00000159 BB[4409]                	mov bx, _rwBUFFER				; to there
   231 0000015C E88200                  	call _DeviceReadWrite
   232                                  
   233 0000015F 7240                    	jc RxDOS_WRITESTUB_68				; if error -->
   234                                  
   235 00000161 FC                      	cld
   236 00000162 BE[4F09]                	mov si, _rwBUFFER + _bsBytesPerSector
   237 00000165 BF[4F0D]                	mov di, eop + _bsBytesPerSector
   238 00000168 B91900                  	mov cx, ( _bsDriveNumber - _bsBytesPerSector )
   239 0000016B F3A4                    	repe movsb					; copy these parameters
   240                                  
   241 0000016D BE[F602]                	mov si, RxDOS_OEMNAME
   242 00000170 BF[470D]                	mov di, eop + _bsOemName
   243 00000173 B90800                  	mov cx, 8
   244 00000176 F3A4                    	repe movsb					; copy OEM identifier
   245                                  
   246 00000178 06                      	push es
   247 00000179 31C0                    	xor ax, ax
   248 0000017B 8EC0                    	mov es, ax
   249 0000017D 26A16C04                	mov ax, word [ es:46Ch ]
   250 00000181 268B166E04              	mov dx, word [ es:46Eh ]			; Actually it should be some mix of DOS date/time
   251                                  							;  We just use the tick value as serial number
   252 00000186 07                      	pop es
   253                                  
   254 00000187 8916[6D0D]              	mov word [ _bsVolumeId + eop + _High ], dx
   255 0000018B A3[6B0D]                	mov word [ _bsVolumeId + eop + _Low ], ax
   256                                  
   257 0000018E 31D2                    	xor dx, dx
   258 00000190 8A56FE                  	mov dl, byte [ _drive + bp ]			; pass drive
   259 00000193 8B46F6                  	mov ax, word [ _UseDevice + bp ]		; pass UseDevice flag
   260 00000196 B90800                  	mov cx, DEVICEWRITE				; write
   261 00000199 BB[440D]                	mov bx, eop					; from here
   262 0000019C E84200                  	call _DeviceReadWrite
   263                                  
   264 0000019F 7313                    	jnc RxDOS_WRITESTUB_72				; if everything is ok -->
   265                                  
   266                                  RxDOS_WRITESTUB_68:
   267 000001A1 837EFA00                	cmp word [ _SilentMode + bp ], byte FALSE
   268 000001A5 7405                    	je RxDOS_WRITESTUB_70
   269 000001A7 B8044C                  	mov ax, 4C04h					; Terminate silent
   270 000001AA CD21                    	int 21h
   271                                  
   272                                  RxDOS_WRITESTUB_70:
   273 000001AC BE[8904]                	mov si, RxDOS_diskA_NotReadyOrError
   274 000001AF E81001                  	call _DisplayMsg
   275 000001B2 EB12                    	jmp short RxDOS_WRITESTUB_76
   276                                  
   277                                  		; success. try again ?
   278                                  RxDOS_WRITESTUB_72:
   279 000001B4 BE[5004]                	mov si, RxDOS_diskA_WrittenSuccesfully
   280 000001B7 E80801                  	call _DisplayMsg
   281 000001BA 837EFC01                	cmp word [ _WriteOnce + bp ], byte TRUE
   282 000001BE 741C                    	jz RxDOS_WRITESTUB_80
   283                                  
   284 000001C0 BE[6004]                	mov si, RxDOS_diskA_WriteAnother
   285 000001C3 E8FC00                  	call _DisplayMsg
   286                                  
   287                                  RxDOS_WRITESTUB_76:
   288 000001C6 B408                    	mov ah, 08h
   289 000001C8 CD21                    	int 21h						; wait for character from StdIn
   290 000001CA E80301                  	call getanswer
   291 000001CD 75F7                    	jnz RxDOS_WRITESTUB_76				;  Loop if no answer found
   292                                  
   293 000001CF 9C                      	pushf
   294 000001D0 B402                    	mov ah, 02h
   295 000001D2 88C2                    	mov dl, al
   296 000001D4 CD21                    	int 21h						; display answer
   297 000001D6 9D                      	popf
   298                                  
   299 000001D7 7203E944FF              	ifnc RxDOS_WRITESTUB_40				; Answer was yes -->
   300                                  							;  otherwise: No
   301                                  RxDOS_WRITESTUB_80:
   302 000001DC B8004CCD21              	Int21 TerminateProcess, 00
   303                                  
   304                                  
   305                                  		; Read or write boot sector, using device or Int25/Int26
   306                                  		;
   307                                  		; INP:	ax = UseDevice flag (if 0, use Int25 or Int26)
   308                                  		;	cx = DEVICEWRITE or DEVICEREAD
   309                                  		;	cs:bx-> Buffer
   310                                  		;	dx = drive (0 = A:, ...)
   311                                  		; OUT:	NC if no error
   312                                  		;	if ax<>0, CY if DPB invalid or invalid device in DPB or device reported error
   313                                  		;	if ax=0, CY if Int25 or Int26 returned an error
   314                                  _DeviceReadWrite:
   315 000001E1 09C0                    	or ax, ax
   316 000001E3 751B                    	jnz _DeviceReadWrite_Device			; Device flag set, go call device -->
   317                                  
   318 000001E5 88D0                    	mov al, dl					; drive passed in dl
   319 000001E7 31D2                    	xor dx, dx					; sector number 0
   320 000001E9 83F908                  	cmp cx, DEVICEWRITE				; write ? ...
   321 000001EC B90100                  	mov cx, 1					; one sector
   322 000001EF 0E1F                    	setds cs					; make sure ds is correct
   323 000001F1 7503                    	jne _DeviceReadWrite_02				; ...else read -->
   324 000001F3 CD26                    	int 26h
   325 000001F5 A9                      	db 0A9h						; "test ax, imm16" (skip "int imm8" opcode)
   326                                  
   327                                  _DeviceReadWrite_02:
   328 000001F6 CD25                    	int 25h
   329 000001F8 19D2                    	sbb dx, dx					; 0 if NC, -1 if CY
   330 000001FA 9D                      	popf						; flags left on stack
   331 000001FB 83FAFF                  	cmp dx, byte -1					; if it's -1, NC
   332                                  							;  else CY
   333 000001FE F5                      	cmc						; reverse CY/NC
   334 000001FF C3                      	retn
   335                                  
   336                                  
   337                                  _DeviceReadWrite_Device:
   338 00000200 5589E5                  	entry
   339 00000203 5050                    	ddef	DPB
   340 00000205 5050                    	ddef	strategy
   341 00000207 5050                    	ddef	interrupt
   342                                  
   343 00000209 1E                      	push ds
   344 0000020A 53                      	push bx
   345 0000020B 42                      	inc dx						; 1 = A:, ...
   346 0000020C B432CD21                	Int21 GetDriveParameterBlock			; get pointer to drive data
   347 00000210 895EFC8C5EFE            	stordarg _DPB, ds, bx				; drive parameter block
   348                                  
   349 00000216 3CFF                    	cmp al, -1					; invalid drive or error ?
   350 00000218 58                      	pop ax						; (buffer address)
   351 00000219 1F                      	pop ds
   352 0000021A 7505                    	jnz _DeviceReadWrite_04				; no, ok -->
   353 0000021C F9                      	stc
   354 0000021D 89EC5DC3                	return
   355                                  
   356                                  _DeviceReadWrite_04:
   357                                  
   358 00000221 C476FC                  	getdarg es, si, _DPB				; drive parameter block
   359                                  
   360 00000224 BB[2609]                	mov bx, _ReqBlock
   361 00000227 884F02                  	mov byte [ bx + rwrFunction ], cl
   362                                  
   363 0000022A 4A                      	dec dx						; 0 = A:, ...
   364 0000022B 885701                  	mov byte [ bx + rwrUnit ], dl
   365 0000022E C6071E                  	mov byte [ bx + rwrLength ], sizeREADReqHeader
   366                                  
   367 00000231 89470E                  	mov word [ bx + rwrBuffer + _pointer ], ax	; buffer address
   368 00000234 8C4F10                  	mov word [ bx + rwrBuffer + _segment ], cs
   369 00000237 C74716[440B]            	mov word [ bx + rwrVolumeID + _pointer ], _rwVOLBUFFER
   370 0000023C 8C4F18                  	mov word [ bx + rwrVolumeID + _segment ], cs
   371                                  
   372 0000023F 268A4417                	mov al, byte [ es:si + _dpbMediaDescriptor ]
   373 00000243 88470D                  	mov byte [ bx + rwrMediaID ], al
   374                                  
   375 00000246 C747120100              	mov word [ bx + rwrBytesReq ], 1		; one sector
   376 0000024B C747140000              	mov word [ bx + rwrStartSec ], 0000		; address
   377 00000250 C7471C0000              	mov word [ bx + rwrHugeStartSec + _high ], 0000
   378 00000255 C7471A0000              	mov word [ bx + rwrHugeStartSec + _low ], 0000
   379                                  
   380                                  		; cs:_ReqBlock-> filled request header
   381                                  
   382 0000025A 26C55413                	lds dx, [ es:si + _dpbptrDeviceDriver ]
   383 0000025E B452CD21                	Int21 GetDosDataTablePtr
   384 00000262 83C322                  	add bx, byte 22h
   385                                  
   386                                  		; ds:dx-> Requested device header
   387                                  		; es:bx-> List of List's NUL device
   388                                  
   389                                  _DeviceReadWrite_08:
   390                                  		; ds:dx-> Requested device header
   391                                  		; es:bx-> Address to next device header, if valid
   392 00000265 26C41F                  	les bx, [ es:bx ]				; es:bx-> next device header
   393                                  
   394                                  		; let's check if we're at the end of the device header chain
   395 00000268 53                      	push bx
   396 00000269 8CC3                    	mov bx, es
   397 0000026B 43                      	inc bx						; segment 0FFFFh ?
   398 0000026C 744A                    	jz _DeviceReadWrite_12
   399 0000026E 4B                      	dec bx						; segment 0000h ?
   400 0000026F 7447                    	jz _DeviceReadWrite_12
   401 00000271 5B                      	pop bx
   402 00000272 43                      	inc bx						; pointer 0FFFFh ?
   403 00000273 7444                    	jz _DeviceReadWrite_14
   404 00000275 4B                      	dec bx						; pointer 0000h allowed !
   405                                  
   406                                  		; ds:dx-> Requested device header
   407                                  		; es:bx-> A valid device header
   408                                  		;
   409                                  		; let's check if they match
   410 00000276 39D3                    	cmp bx, dx					; pointers match ?
   411 00000278 75EB                    	jne _DeviceReadWrite_08				; no, try next -->
   412 0000027A 53                      	push bx
   413 0000027B 52                      	push dx
   414 0000027C 8CDA                    	mov dx, ds
   415 0000027E 8CC3                    	mov bx, es
   416 00000280 39D3                    	cmp bx, dx					; segments match ?
   417 00000282 5A                      	pop dx
   418 00000283 5B                      	pop bx
   419 00000284 75DF                    	jne _DeviceReadWrite_08				; no, try next -->
   420                                  
   421                                  		; (es:bx == ds:dx)-> BLOCK device header
   422 00000286 8B4706                  	mov ax, word [ bx + devStrategy ]		; ds:bx also
   423 00000289 8946F88C5EFA            	stordarg _strategy, ds, ax
   424                                  
   425 0000028F 8B4708                  	mov ax, word [ bx + devInterrupt ]		; ds:bx also
   426 00000292 8946F48C5EF6            	stordarg _interrupt, ds, ax
   427                                  
   428 00000298 0E07                    	setes cs
   429 0000029A BB[2609]                	mov bx, _ReqBlock
   430 0000029D C747030381              	mov word [ bx + rwrStatus ], (OP_EXITERROR| devErrUnknownCommand)
   431 000002A2 9C                      	pushf
   432 000002A3 FA                      	cli
   433 000002A4 55                      	 push bp
   434 000002A5 FF5EF8                  	call far [ bp + _strategy ]			; strategy
   435 000002A8 5D                      	 pop bp
   436 000002A9 55                      	 push bp
   437 000002AA FF5EF4                  	call far [ bp + _interrupt ]			; interrupt
   438 000002AD 5D                      	 pop bp
   439 000002AE 9D                      	popf
   440                                  
   441                                  		; Note:	All registers (except cs:ip, ss:sp, bp) could have changed now.
   442 000002AF F706[2909]0080          	test word [ _ReqBlock + rwrStatus ], OP_ERROR	; (test sets NC)
   443 000002B5 7403                    	jz _DeviceReadWrite_24				; no error -->
   444                                  
   445 000002B7 53                      	push bx
   446                                  
   447                                  _DeviceReadWrite_12:
   448 000002B8 5B                      	pop bx
   449                                  
   450                                  _DeviceReadWrite_14:
   451 000002B9 F9                      	stc						; else error
   452                                  
   453                                  _DeviceReadWrite_24:
   454 000002BA 0E07                    	setes cs
   455 000002BC 0E1F                    	setds cs					; restore
   456 000002BE 89EC5DC3                	return
   457                                  
   458                                  
   459                                  		; Display Message
   460                                  _DisplayMsg:
   461 000002C2 AC                      	lodsb						; get character (ds:si)
   462 000002C3 08C0                    	or al, al					; null terminator ?
   463 000002C5 7408                    	jz .return					; done -->
   464                                  
   465 000002C7 B402                    	mov ah, 02h
   466 000002C9 88C2                    	mov dl, al
   467 000002CB CD21                    	int 21h
   468 000002CD EBF3                    	jmp short _DisplayMsg
   469                                  
   470                                  .return:
   471 000002CF C3                      	retn
   472                                  
   473                                  
   474                                  getanswer:		; INP: al = character
   475                                  			; OUT: ZR if answer found,
   476                                  			;       NC if 'Yes'
   477                                  			;       CY if 'No'
   478                                  			;      NZ if no answer found
   479 000002D0 3C6172063C7B730224-     	_uppercase al
   479 000002D9 DF                 
   480 000002DA 3C0D7416                	gotos ControlM,	.yes				; Enter		--> Yes
   481 000002DE 3C207412                	gotos ' ',	.yes				; Space		--> Yes
   482 000002E2 3C59740E                	gotos 'Y',	.yes				; 'Y'		--> Yes
   483 000002E6 3C1B7408                	gotos 27,	.no				; Escape	--> No
   484 000002EA 3C037404                	gotos ControlC,	.no				; ^C, ^Break	--> No
   485 000002EE 3C4E7400                	gotos 'N',	.no				; 'N'		--> No
   486                                  .no:
   487 000002F2 F9                      	stc
   488 000002F3 C3                      	retn
   489                                  .yes:
   490 000002F4 F8                      	clc
   491 000002F5 C3                      	retn
   492                                  
   493                                  %ifdef DEBUGINT24
   494                                  
   495                                  int24:
   496                                  	int3
   497                                  	jmp far [ cs:pspCritErrorVect ]
   498                                  
   499                                  %endif
   500                                  
   501                                  		; Messages
   502                                  RxDOS_OEMNAME:
   503 000002F6 5278444F53372E32        	db 'RxDOS7.2'
   504                                  
   505                                  RxDOS_Usage:
   506 000002FE 0D0A5278444F532062-     	db 13,10,"RxDOS boot sector write utility"
   506 00000307 6F6F7420736563746F-
   506 00000310 722077726974652075-
   506 00000319 74696C697479       
   507 0000031F 0D0A2055736167653A-     	db 13,10," Usage: RXD_BOOT[.COM] [drive[:]] [options]"
   507 00000328 205258445F424F4F54-
   507 00000331 5B2E434F4D5D205B64-
   507 0000033A 726976655B3A5D5D20-
   507 00000343 5B6F7074696F6E735D 
   508 0000034C 0D0A                    	db 13,10
   509 0000034E 0D0A206F7074696F6E-     	db 13,10," options:"
   509 00000357 733A               
   510 00000359 0D0A202020202F3120-     	db 13,10,"    /1    Don't ask to write to another disk"
   510 00000362 202020446F6E277420-
   510 0000036B 61736B20746F207772-
   510 00000374 69746520746F20616E-
   510 0000037D 6F7468657220646973-
   510 00000386 6B                 
   511 00000387 0D0A202020202F5320-     	db 13,10,"    /S    Don't display anything"
   511 00000390 202020446F6E277420-
   511 00000399 646973706C61792061-
   511 000003A2 6E797468696E67     
   512 000003A9 0D0A202020202F4420-     	db 13,10,"    /D    Use the BLOCK device to access the disk"
   512 000003B2 202020557365207468-
   512 000003BB 6520424C4F434B2064-
   512 000003C4 657669636520746F20-
   512 000003CD 616363657373207468-
   512 000003D6 65206469736B       
   513 000003DC 0D0A202020202F3F2C-     	db 13,10,"    /?,/H Display this help message and exit"
   513 000003E5 2F4820446973706C61-
   513 000003EE 792074686973206865-
   513 000003F7 6C70206D6573736167-
   513 00000400 6520616E6420657869-
   513 00000409 74                 
   514 0000040A 0D0A00                  	db 13,10,0
   515                                  
   516                                  RxDOS_InvalidParameter:
   517 0000040D 0D0A496E76616C6964-     	db 13,10,"Invalid parameter",0
   517 00000416 20706172616D657465-
   517 0000041F 7200               
   518                                  
   519                                  RxDOS_PressKeyWhenReady:
   520 00000421 0D0A50726573732053-     	db 13,10,"Press Space to write boot sector to disk "
   520 0000042A 7061636520746F2077-
   520 00000433 7269746520626F6F74-
   520 0000043C 20736563746F722074-
   520 00000445 6F206469736B20     
   521                                  
   522                                  RxDOS_PressKeyWhenReady_Drive:
   523 0000044C 413A2000                	db "A: ", 0
   524                                  
   525                                  RxDOS_diskA_WrittenSuccesfully:
   526 00000450 0D0A4469736B207570-     	db 13,10,"Disk updated.", 0
   526 00000459 64617465642E00     
   527                                  
   528                                  RxDOS_diskA_WriteAnother:
   529 00000460 20576F756C6420796F-     	db " Would you like to write another? (Y/N) ", 0
   529 00000469 75206C696B6520746F-
   529 00000472 20777269746520616E-
   529 0000047B 6F746865723F202859-
   529 00000484 2F4E292000         
   530                                  
   531                                  RxDOS_diskA_NotReadyOrError:
   532 00000489 0D0A4469736B206572-     	db 13,10,"Disk error or drive not ready. Try again? (Y/N) ", 0
   532 00000492 726F72206F72206472-
   532 0000049B 697665206E6F742072-
   532 000004A4 656164792E20547279-
   532 000004AD 20616761696E3F2028-
   532 000004B6 592F4E292000       
   533                                  
   534                                  RxDOS_InvalidDrive:
   535 000004BC 0D0A44726976652069-     	db 13,10,"Drive is invalid. Cannot write boot sector.", 0
   535 000004C5 7320696E76616C6964-
   535 000004CE 2E2043616E6E6F7420-
   535 000004D7 777269746520626F6F-
   535 000004E0 7420736563746F722E-
   535 000004E9 00                 
   536                                  
   537                                  RxDOS_NoBootImage:
   538 000004EA 0D0A4D697373696E67-     	db 13,10,"Missing or invalid boot sector at end of program file.", 0
   538 000004F3 206F7220696E76616C-
   538 000004FC 696420626F6F742073-
   538 00000505 6563746F7220617420-
   538 0000050E 656E64206F66207072-
   538 00000517 6F6772616D2066696C-
   538 00000520 652E00             
   539                                  
   540                                  		; Drive Default Data
   541                                  	
   542                                  %if 0
   543                                  		; Not yet used
   544                                  DriveDefaultData:
   545                                  
   546                                  	; 360k drive
   547                                  
   548                                  	dw sizeSector				; __bsBytesPerSector
   549                                  	db 2					; __bsSectorsPerCluster
   550                                  	dw 1					; __bsResSectors
   551                                  	db 2					; __bsNumCopiesFAT
   552                                  	dw 112					; __bsMaxAllocRootDir
   553                                  	dw 720					; __bsMaxSectors
   554                                  	db 0FDh					; __bsMediaDescriptor
   555                                  	dw 2					; __bsSectorsPerFat
   556                                  	dw 9					; __bsSectorsPerTrack
   557                                  	dw 2					; __bsHeads
   558                                  	dd 0					; __bsHiddenSectors
   559                                  	dd 0					; __bsHugeSectors
   560                                  
   561                                  	; 1.2M drive
   562                                  
   563                                  	dw sizeSector				; __bsBytesPerSector
   564                                  	db 1					; __bsSectorsPerCluster
   565                                  	dw 1					; __bsResSectors
   566                                  	db 2					; __bsNumCopiesFAT
   567                                  	dw 224					; __bsMaxAllocRootDir
   568                                  	dw 2400					; __bsMaxSectors
   569                                  	db 0F9h					; __bsMediaDescriptor
   570                                  	dw 7					; __bsSectorsPerFat
   571                                  	dw 15					; __bsSectorsPerTrack
   572                                  	dw 2					; __bsHeads
   573                                  	dd 0					; __bsHiddenSectors
   574                                  	dd 0					; __bsHugeSectors
   575                                  
   576                                  	; 720k drive
   577                                  
   578                                  	dw sizeSector				; __bsBytesPerSector
   579                                  	db 2					; __bsSectorsPerCluster
   580                                  	dw 1					; __bsResSectors
   581                                  	db 2					; __bsNumCopiesFAT
   582                                  	dw 112					; __bsMaxAllocRootDir
   583                                  	dw 1440					; __bsMaxSectors
   584                                  	db 0F9h					; __bsMediaDescriptor
   585                                  	dw 3					; __bsSectorsPerFat
   586                                  	dw 9					; __bsSectorsPerTrack
   587                                  	dw 2					; __bsHeads
   588                                  	dd 0					; __bsHiddenSectors
   589                                  	dd 0					; __bsHugeSectors
   590                                  
   591                                  	; 1.44M drive
   592                                  
   593                                  	dw sizeSector				; __bsBytesPerSector
   594                                  	db 1					; __bsSectorsPerCluster
   595                                  	dw 1					; __bsResSectors
   596                                  	db 2					; __bsNumCopiesFAT
   597                                  	dw 224					; __bsMaxAllocRootDir
   598                                  	dw 2880					; __bsMaxSectors
   599                                  	db 0F0h					; __bsMediaDescriptor
   600                                  	dw 9					; __bsSectorsPerFat
   601                                  	dw 18					; __bsSectorsPerTrack
   602                                  	dw 2					; __bsHeads
   603                                  	dd 0					; __bsHiddenSectors
   604                                  	dd 0					; __bsHugeSectors
   605                                  
   606                                  	dw -1
   607                                  %endif
   608                                  
   609                                  		; stack for stub
   610                                  
   611 00000523 00                      			align 2,db 0
   612 00000524 00<rept>                			times 400h db 0
   613 00000924 0000                    RxDOS_WRITESTUB_STACK:	dw 0
   614                                  
   615                                  			align 2,db 0
   616 00000926 00<rept>                _ReqBlock:		times sizeREADReqHeader db 0
   617                                  
   618                                  		; working sector buffer
   619                                  
   620 00000944 00<rept>                _rwBUFFER:		times sizeSector db 0
   621 00000B44 00<rept>                _rwVOLBUFFER:		times sizeSector db 0
   622                                  
   623                                  eop:
   624                                  		; The boot sector will appear here after it's appended
   625                                  		; to the executable file (RXD_BOOT.COM)
