     1                                  
     2                                  %if 0
     3                                  
     4                                  RxDOSCCB - RxDOS CCB cache and buffer manager
     5                                  
     6                                  This product is distributed AS IS and contains no warranty
     7                                  whatsoever, including warranty of merchantability or
     8                                  fitness for a particular purpose.
     9                                  
    10                                  (c) Copyright 1990, 1999. Mike Podanoffsky
    11                                  
    12                                  This is free software; you can redistribute it and/or modify
    13                                  it under the terms of the GNU General Public License, see
    14                                  the file LICENSE.TXT.
    15                                  
    16                                  %endif
    17                                  
    18                                  	cpu 8086
    19                                  
    20                                  	segment RXDOS align=16 class=RXDOS use16 public
    21                                  	segment RXDOS
    22                                  
    23                                  %include "RXDMACRO.MAC"
     1                              <1> [list -]
    31                              <1> [list -]
    33                              <1> [list -]
    24                                  %include "RXDSTRUC.MAC"
     1                              <1> [list -]
    25                                  
    26                                  	global CCBChanged
    27                                  	global SetCCBChanged
    28                                  	global invalidateBuffers
    29                                  	global linkBegCCB
    30                                  	global locateCCBPHeader
    31                                  	global readBuffer
    32                                  	global readFATBuffer
    33                                  	global readSelBuffer
    34                                  	global SelBuffer
    35                                  	global unlinkCCB
    36                                  	global updateAllChangedCCBBuffers
    37                                  	global updateCCB
    38                                  	global updateChangedCCB
    39                                  	global updateDriveBuffers
    40                                  
    41                                  	extern DevRead
    42                                  	extern DevWrite
    43                                  	extern getAddrDPB
    44                                  	extern _RxDOS_BufferList
    45                                  	extern _RxDOS_pCDS
    46                                  	extern _DebugInterruptTrap
    47                                  
    48                                  
    49                                  		; Selected Buffer
    50                                  		;
    51                                  		; Input:
    52                                  		; ax = drive
    53                                  		; cx:dx = sector to read
    54                                  		;
    55                                  		; Output:
    56                                  		; es:di-> selected buffer
    57                                  		; NZ if buffer contains valid data
    58                                  SelBuffer:
    59                                  
    60 00000000 50535152                	SaveRegisters ax, bx, cx, dx
    61                                  
    62 00000004 36C43E[0000]            	les di, [ ss:_RxDOS_BufferList ]
    63 00000009 BBFFFF                  	mov bx, -1
    64                                  
    65                                  selBuffer_04:
    66 0000000C 26F6450520              	test byte [ es:di + ccbStatus  ], ( ccb_isVALID )
    67 00000011 7412                    	jz selBuffer_08					; unallocated buffer -->
    68                                  
    69 00000013 26384504                	cmp byte [ es:di + ccbDrive ], al		; compare drives
    70 00000017 750C                    	jnz selBuffer_08				; not this block, try next -->
    71                                  
    72 00000019 263B4D08                	cmp cx, word [ es:di + ccbLBN + _high ]		; compare logical block numbers
    73 0000001D 7506                    	jnz selBuffer_08				; not this block, try next -->
    74 0000001F 263B5506                	cmp dx, word [ es:di + ccbLBN + _low ]		; compare logical block numbers
    75 00000023 7457                    	jz selBuffer_36					; buffer located -->
    76                                  
    77                                  selBuffer_08:
    78 00000025 26F6450501              	test byte [ es:di + ccbStatus ], ( ccb_isONHOLD )
    79 0000002A 7502                    	jnz selBuffer_12				; if on hold, don't use -->
    80 0000002C 89FB                    	mov bx, di					; save last buffer address
    81                                  
    82                                  selBuffer_12:
    83 0000002E 268B3D                  	mov di, word [ es:di + ccbNext ]
    84 00000031 83FFFF                  	cmp di, byte -1
    85 00000034 75D6                    	jnz selBuffer_04
    86                                  	
    87                                  		; if could not find a matching buffer, find an empty buffer
    88 00000036 89DF                    	mov di, bx
    89 00000038 83FFFF                  	cmp di, byte -1					; buffer address available ?
    90 0000003B 7517                    	jnz selBuffer_30				; use the last referenced buffer -->
    91                                  
    92 0000003D 36C43E[0000]            	les di, [ ss:_RxDOS_BufferList ]		; else must search buffers again
    93                                  
    94                                  selBuffer_16:
    95 00000042 26F6450520              	test byte [ es:di + ccbStatus ], ( ccb_isVALID )
    96 00000047 740E                    	jz selBuffer_32					; unallocated buffer -->
    97                                  
    98 00000049 26833DFF                	cmp word [ es:di + ccbNext ], byte -1
    99 0000004D 7405                    	jz selBuffer_30					; must write all, use least used -->
   100 0000004F 268B3D                  	mov di, word [ es:di + ccbNext ]
   101 00000052 EBEE                    	jmp short selBuffer_16 
   102                                  
   103                                  		; prepare returned buffer
   104                                  selBuffer_30:
   105 00000054 E83801                  	call updateCCB					; just in case update required
   106                                  
   107                                  selBuffer_32:
   108 00000057 26884504                	mov byte [ es:di + ccbDrive ], al		; set drive
   109 0000005B 26894D08                	mov word [ es:di + ccbLBN + _high ], cx		; set logical block number
   110 0000005F 26895506                	mov word [ es:di + ccbLBN + _low ], dx		; set logical block number
   111 00000063 26C6450500              	mov byte [ es:di + ccbStatus ], 0		; clear status
   112 00000068 E82800                  	call setFlagIfDriveIsRemote			; sets remote flag
   113                                  
   114                                  	push es
   114                              <1> %ifidni %1,-
   114                              <1> 
   114                              <1> %elifidni %1,ip
   114                              <1>  o16
   114                              <1>  call %%next
   114                              <1> %%next:
   114                              <1> %elifidni %1,eip
   114                              <1>  o32
   114                              <1>  call %%next
   114                              <1> %%next:
   114                              <1> %elifidni %1,f
   114                              <1>  pushf
   114                              <1> %elifidni %1,fw
   114                              <1>  pushfw
   114                              <1> %elifidni %1,fd
   114                              <1>  pushfd
   114                              <1> %else
   114 0000006B 06                  <1>  push %1
   114                              <1> %endif
   115                                  	push di
   115                              <1> %ifidni %1,-
   115                              <1> 
   115                              <1> %elifidni %1,ip
   115                              <1>  o16
   115                              <1>  call %%next
   115                              <1> %%next:
   115                              <1> %elifidni %1,eip
   115                              <1>  o32
   115                              <1>  call %%next
   115                              <1> %%next:
   115                              <1> %elifidni %1,f
   115                              <1>  pushf
   115                              <1> %elifidni %1,fw
   115                              <1>  pushfw
   115                              <1> %elifidni %1,fd
   115                              <1>  pushfd
   115                              <1> %else
   115 0000006C 57                  <1>  push %1
   115                              <1> %endif
   116 0000006D E8(0000)                	call getAddrDPB					; pointer to DPB
   117 00000070 8CC2                    	mov dx, es					; pointer was in es:bx
   118                                  
   119 00000072 5F                      	pop di
   120 00000073 07                      	pop es
   121 00000074 2689550F                	mov word [ es:di + ccbDPB + _segment ], dx
   122 00000078 26895D0D                	mov word [ es:di + ccbDPB + _pointer ], bx
   123                                  
   124                                  selBuffer_36:
   125 0000007C 363B3E[0000]            	cmp di, word [ ss:_RxDOS_BufferList + _pointer ]
   126 00000081 7406                    	jz selBuffer_38					; if already at beginning -->
   127                                  
   128 00000083 E82C00                  	call unlinkCCB					; unlink CCB buffer
   129 00000086 E85F00                  	call linkBegCCB					; link to front of CCB chain
   130                                  
   131                                  selBuffer_38:
   132 00000089 26F6450520              	test byte [ es:di + ccbStatus ], ( ccb_isVALID )
   133 0000008E 5A595B58                	RestoreRegisters dx, cx, bx, ax
   134 00000092 C3                      	retn
   135                                  
   136                                  
   137                                  		; Is Drive Remote
   138                                  		;
   139                                  		; al = drive
   140                                  		; es:di-> CCB buffer
   141                                  setFlagIfDriveIsRemote:
   142                                  
   143                                  	push ax
   143                              <1> %ifidni %1,-
   143                              <1> 
   143                              <1> %elifidni %1,ip
   143                              <1>  o16
   143                              <1>  call %%next
   143                              <1> %%next:
   143                              <1> %elifidni %1,eip
   143                              <1>  o32
   143                              <1>  call %%next
   143                              <1> %%next:
   143                              <1> %elifidni %1,f
   143                              <1>  pushf
   143                              <1> %elifidni %1,fw
   143                              <1>  pushfw
   143                              <1> %elifidni %1,fd
   143                              <1>  pushfd
   143                              <1> %else
   143 00000093 50                  <1>  push %1
   143                              <1> %endif
   144                                  	push di
   144                              <1> %ifidni %1,-
   144                              <1> 
   144                              <1> %elifidni %1,ip
   144                              <1>  o16
   144                              <1>  call %%next
   144                              <1> %%next:
   144                              <1> %elifidni %1,eip
   144                              <1>  o32
   144                              <1>  call %%next
   144                              <1> %%next:
   144                              <1> %elifidni %1,f
   144                              <1>  pushf
   144                              <1> %elifidni %1,fw
   144                              <1>  pushfw
   144                              <1> %elifidni %1,fd
   144                              <1>  pushfd
   144                              <1> %else
   144 00000094 57                  <1>  push %1
   144                              <1> %endif
   145                                  	push es
   145                              <1> %ifidni %1,-
   145                              <1> 
   145                              <1> %elifidni %1,ip
   145                              <1>  o16
   145                              <1>  call %%next
   145                              <1> %%next:
   145                              <1> %elifidni %1,eip
   145                              <1>  o32
   145                              <1>  call %%next
   145                              <1> %%next:
   145                              <1> %elifidni %1,f
   145                              <1>  pushf
   145                              <1> %elifidni %1,fw
   145                              <1>  pushfw
   145                              <1> %elifidni %1,fd
   145                              <1>  pushfd
   145                              <1> %else
   145 00000095 06                  <1>  push %1
   145                              <1> %endif
   146                                  
   147 00000096 B158                    	mov cl, sizeCDS
   148 00000098 F6E1                    	mul cl						; ax contains drive's entry in CDS
   149 0000009A 36C43E[0000]            	les di, [ ss:_RxDOS_pCDS ]			; actual address of CDS
   150 0000009F 01C7                    	add di, ax					; current drive
   151 000000A1 26F745430080            	test word [ es:di + _cdsFlags ], _CDS_NETWORKEDDRIVE	
   152 000000A7 07                      	pop es
   153 000000A8 5F                      	pop di
   154 000000A9 7405                    	jz IfDriveIsRemote_12				; if not remote -->
   155                                  
   156 000000AB 26804D0580              	or byte [ es:di + ccbStatus ], ( ccb_isREMOTE )
   157                                  
   158                                  IfDriveIsRemote_12:
   159 000000B0 58                      	pop ax
   160 000000B1 C3                      	retn
   161                                  
   162                                  
   163                                  		; Remove CCB Buffer from Linked List
   164                                  		;
   165                                  		; es:di-> CCB buffer
   166                                  unlinkCCB:
   167                                  
   168 000000B2 9C                      	pushf						; save current interrupt status
   169                                  	push ax
   169                              <1> %ifidni %1,-
   169                              <1> 
   169                              <1> %elifidni %1,ip
   169                              <1>  o16
   169                              <1>  call %%next
   169                              <1> %%next:
   169                              <1> %elifidni %1,eip
   169                              <1>  o32
   169                              <1>  call %%next
   169                              <1> %%next:
   169                              <1> %elifidni %1,f
   169                              <1>  pushf
   169                              <1> %elifidni %1,fw
   169                              <1>  pushfw
   169                              <1> %elifidni %1,fd
   169                              <1>  pushfd
   169                              <1> %else
   169 000000B3 50                  <1>  push %1
   169                              <1> %endif
   170                                  	push di
   170                              <1> %ifidni %1,-
   170                              <1> 
   170                              <1> %elifidni %1,ip
   170                              <1>  o16
   170                              <1>  call %%next
   170                              <1> %%next:
   170                              <1> %elifidni %1,eip
   170                              <1>  o32
   170                              <1>  call %%next
   170                              <1> %%next:
   170                              <1> %elifidni %1,f
   170                              <1>  pushf
   170                              <1> %elifidni %1,fw
   170                              <1>  pushfw
   170                              <1> %elifidni %1,fd
   170                              <1>  pushfd
   170                              <1> %else
   170 000000B4 57                  <1>  push %1
   170                              <1> %endif
   171 000000B5 FA                      	cli						; disable interrupts
   172                                  
   173 000000B6 268B4502                	mov ax, word [ es:di + ccbPrev ]
   174 000000BA 268B3D                  	mov di, word [ es:di + ccbNext ]
   175 000000BD 83F8FF                  	cmp ax, byte -1					; no previous ?
   176 000000C0 7505                    	jnz unlinkCCB_06				; no -->
   177 000000C2 36893E[0000]            	mov word [ ss:_RxDOS_BufferList + _pointer ], di	; update beg of list if no previous
   178                                  
   179                                  unlinkCCB_06:
   180 000000C7 83FFFF                  	cmp di, byte -1					; no next pointer ?
   181 000000CA 7404                    	jz unlinkCCB_08					; skip removing its Prev pointer ->
   182 000000CC 26894502                	mov word [ es:di + ccbPrev ], ax		; next's prev fixed.
   183                                  
   184                                  unlinkCCB_08:
   185 000000D0 83F8FF                  	cmp ax, byte -1					; no previous ?
   186 000000D3 7404                    	jz unlinkCCB_12					; no -->
   187 000000D5 97                      	xchg di, ax
   188 000000D6 268905                  	mov word [ es:di + ccbNext ], ax		; prev's next fixed.
   189                                  
   190                                  unlinkCCB_12:
   191 000000D9 5F                      	pop di
   192 000000DA 26C74502FFFF            	mov word [ es:di + ccbPrev ], -1		; unlink current pointers
   193 000000E0 26C705FFFF              	mov word [ es:di + ccbNext ], -1
   194 000000E5 58                      	pop ax
   195 000000E6 9D                      	popf						; restore interrupt status
   196 000000E7 C3                      	retn
   197                                  
   198                                  
   199                                  		; Link CCB Buffer to Beginning of List
   200                                  		;
   201                                  		; es:di-> CCB buffer 
   202                                  linkBegCCB:
   203                                  
   204 000000E8 9C                      	pushf						; save current interrupt status
   205                                  	push ax
   205                              <1> %ifidni %1,-
   205                              <1> 
   205                              <1> %elifidni %1,ip
   205                              <1>  o16
   205                              <1>  call %%next
   205                              <1> %%next:
   205                              <1> %elifidni %1,eip
   205                              <1>  o32
   205                              <1>  call %%next
   205                              <1> %%next:
   205                              <1> %elifidni %1,f
   205                              <1>  pushf
   205                              <1> %elifidni %1,fw
   205                              <1>  pushfw
   205                              <1> %elifidni %1,fd
   205                              <1>  pushfd
   205                              <1> %else
   205 000000E9 50                  <1>  push %1
   205                              <1> %endif
   206 000000EA FA                      	cli						; disable interrupts
   207                                  
   208 000000EB 89F8                    	mov ax, di
   209 000000ED 36C43E[0000]            	les di, [ ss:_RxDOS_BufferList ]
   210 000000F2 39F8                    	cmp ax, di					; relinking CCB buffer to beg of list ?
   211 000000F4 7413                    	jz linkBegCCB_08				; yes, don't do it -->
   212                                  
   213 000000F6 26894502                	mov word [ es:di + ccbPrev ], ax		; previous to orig prev
   214                                  
   215 000000FA 97                      	xchg di, ax
   216 000000FB 268905                  	mov word [ es:di + ccbNext ], ax		; this next to old next
   217 000000FE 26C74502FFFF            	mov word [ es:di + ccbPrev ], -1		; current no more previous
   218                                  	
   219 00000104 36893E[0000]            	mov word [ ss:_RxDOS_BufferList + _pointer ], di
   220                                  
   221                                  linkBegCCB_08:
   222 00000109 58                      	pop ax
   223 0000010A 9D                      	popf
   224 0000010B C3                      	retn
   225                                  
   226                                  
   227                                  		; Mark CCB buffer changed
   228                                  		;
   229                                  		; bx-> anywhere inside a valid buffer
   230                                  SetCCBChanged:
   231                                  
   232                                  	push di
   232                              <1> %ifidni %1,-
   232                              <1> 
   232                              <1> %elifidni %1,ip
   232                              <1>  o16
   232                              <1>  call %%next
   232                              <1> %%next:
   232                              <1> %elifidni %1,eip
   232                              <1>  o32
   232                              <1>  call %%next
   232                              <1> %%next:
   232                              <1> %elifidni %1,f
   232                              <1>  pushf
   232                              <1> %elifidni %1,fw
   232                              <1>  pushfw
   232                              <1> %elifidni %1,fd
   232                              <1>  pushfd
   232                              <1> %else
   232 0000010C 57                  <1>  push %1
   232                              <1> %endif
   233                                  	push si
   233                              <1> %ifidni %1,-
   233                              <1> 
   233                              <1> %elifidni %1,ip
   233                              <1>  o16
   233                              <1>  call %%next
   233                              <1> %%next:
   233                              <1> %elifidni %1,eip
   233                              <1>  o32
   233                              <1>  call %%next
   233                              <1> %%next:
   233                              <1> %elifidni %1,f
   233                              <1>  pushf
   233                              <1> %elifidni %1,fw
   233                              <1>  pushfw
   233                              <1> %elifidni %1,fd
   233                              <1>  pushfd
   233                              <1> %else
   233 0000010D 56                  <1>  push %1
   233                              <1> %endif
   234                                  	push bx
   234                              <1> %ifidni %1,-
   234                              <1> 
   234                              <1> %elifidni %1,ip
   234                              <1>  o16
   234                              <1>  call %%next
   234                              <1> %%next:
   234                              <1> %elifidni %1,eip
   234                              <1>  o32
   234                              <1>  call %%next
   234                              <1> %%next:
   234                              <1> %elifidni %1,f
   234                              <1>  pushf
   234                              <1> %elifidni %1,fw
   234                              <1>  pushfw
   234                              <1> %elifidni %1,fd
   234                              <1>  pushfd
   234                              <1> %else
   234 0000010E 53                  <1>  push %1
   234                              <1> %endif
   235 0000010F 89DE                    	mov si, bx
   236                                  %if 0
   237                                  		; RxDOS 7.20N:	Validate given segment matches our buffer segment.
   238                                  		; RxDOS 7.20N:	RxDOSFCB needs that we don't compare the segment. The used
   239                                  		;		FINDENTRY structure doesn't have space for the segment.
   240                                  	mov bx, es
   241                                  	cmp bx, word [ ss:_RxDOS_BufferList + _segment ]
   242                                  	stc
   243                                  	jne .invalid
   244                                  %endif
   245 00000111 E81200                  	call locateCCBPHeader
   246                                  %if 0
   247                                  		; RxDOS 7.20N:	Abort if not located
   248                                  	jc .invalid
   249                                  %endif
   250 00000114 E80400                  	call CCBChanged
   251                                  
   252                                  .invalid:
   253                                  
   254 00000117 5B                      	pop bx
   255 00000118 5E                      	pop si
   256 00000119 5F                      	pop di
   257 0000011A C3                      	retn
   258                                  
   259                                  
   260                                  		; Mark CCB buffer changed
   261                                  		;
   262                                  		; es:di-> selected buffer
   263                                  CCBChanged:
   264                                  
   265 0000011B 26804D0560              	or byte [ es:di + ccbStatus ], ( ccb_isDIRTY + ccb_isVALID )
   266 00000120 26806505FE              	and byte [ es:di + ccbStatus ], ~ ( ccb_isONHOLD )
   267 00000125 C3                      	retn
   268                                  
   269                                  
   270                                  		; Locate from reference actual start of CCB buffer
   271                                  		;
   272                                  		; Input:
   273                                  		; si-> into a CCB buffer
   274                                  		;
   275                                  		; Output:
   276                                  		; es:di-> CCB Header
   277                                  		; cx = offset from start of data
   278                                  locateCCBPHeader:
   279                                  
   280 00000126 36C43E[0000]            	les di, [ ss:_RxDOS_BufferList ]
   281                                  
   282                                  locateCCBPHeader_04:
   283 0000012B 89F1                    	mov cx, si
   284 0000012D 29F9                    	sub cx, di					; how far from start of buffer
   285                                  %if 1
   286 0000012F 7C09                    	jl locateCCBPHeader_08				; go to next -->
   287 00000131 81F91402                	cmp cx, sizeCCB					; within a CCB buffer ?
   288 00000135 7F03                    	jg locateCCBPHeader_08				; go to next -->
   289                                  %else
   290                                  		; RxDOS 7.20N:	This must compare unsigned.
   291                                  	jb locateCCBPHeader_08				; go to next -->
   292                                  	cmp cx, sizeCCB					; within a CCB buffer ?
   293                                  	ja locateCCBPHeader_08				; go to next -->
   294                                  %endif
   295                                  
   296                                  %if 1
   297 00000137 09C9                    	or cx, cx					; no carry (leave offset alone )
   298                                  %else
   299                                  	clc
   300                                  %endif
   301 00000139 C3                      	retn
   302                                  
   303                                  locateCCBPHeader_08:
   304 0000013A 268B3D                  	mov di, word [ es:di + ccbNext ]
   305 0000013D 83FFFF                  	cmp di, byte -1
   306 00000140 75E9                    	jnz locateCCBPHeader_04
   307                                  
   308 00000142 F9                      	stc
   309 00000143 C3                      	retn
   310                                  
   311                                  
   312                                  		; Read Buffer
   313                                  		;
   314                                  		; Input:
   315                                  		; ax	drive
   316                                  		; cx:dx	sector to read
   317                                  		;
   318                                  		; Output:
   319                                  		; es:di	pointer to selected buffer
   320                                  readBuffer:
   321                                  
   322 00000144 E8B9FE                  	call SelBuffer					; find a buffer
   323 00000147 7503                    	jnz readBuffer_08				; if buffer is valid -->
   324                                  
   325 00000149 E80A00                  	call readSelBuffer				; else read buffer
   326                                  
   327                                  readBuffer_08:
   328 0000014C C3                      	retn
   329                                  
   330                                  
   331                                  		; Read FAT Buffer
   332                                  		;
   333                                  		; Input:
   334                                  		; ax = drive
   335                                  		; cx:dx = sector to read
   336                                  		;
   337                                  		; Output:
   338                                  		; es:di-> selected buffer
   339                                  readFATBuffer:
   340                                  
   341 0000014D E8B0FE                  	call SelBuffer					; find a buffer
   342 00000150 7503                    	jnz readFATBuffer_08				; if buffer is valid -->
   343 00000152 E80100                  	call readSelBuffer				; else read buffer
   344                                  
   345                                  readFATBuffer_08:
   346 00000155 C3                      	retn
   347                                  
   348                                  
   349                                  		; Read Selected Buffer
   350                                  		;
   351                                  		; Input:
   352                                  		; es:di-> selected buffer
   353                                  		; cx:dx = sector to read
   354                                  		; ax = drive
   355                                  		;
   356                                  		; Output:
   357                                  		; es:di-> selected buffer
   358                                  		; cx:dx = sector to read
   359                                  readSelBuffer:
   360                                  
   361 00000156 061E55575652515350      	SaveAllRegisters
   362                                  
   363                                  	push di
   363                              <1> %ifidni %1,-
   363                              <1> 
   363                              <1> %elifidni %1,ip
   363                              <1>  o16
   363                              <1>  call %%next
   363                              <1> %%next:
   363                              <1> %elifidni %1,eip
   363                              <1>  o32
   363                              <1>  call %%next
   363                              <1> %%next:
   363                              <1> %elifidni %1,f
   363                              <1>  pushf
   363                              <1> %elifidni %1,fw
   363                              <1>  pushfw
   363                              <1> %elifidni %1,fd
   363                              <1>  pushfd
   363                              <1> %else
   363 0000015F 57                  <1>  push %1
   363                              <1> %endif
   364                                  	push es
   364                              <1> %ifidni %1,-
   364                              <1> 
   364                              <1> %elifidni %1,ip
   364                              <1>  o16
   364                              <1>  call %%next
   364                              <1> %%next:
   364                              <1> %elifidni %1,eip
   364                              <1>  o32
   364                              <1>  call %%next
   364                              <1> %%next:
   364                              <1> %elifidni %1,f
   364                              <1>  pushf
   364                              <1> %elifidni %1,fw
   364                              <1>  pushfw
   364                              <1> %elifidni %1,fd
   364                              <1>  pushfd
   364                              <1> %else
   364 00000160 06                  <1>  push %1
   364                              <1> %endif
   365 00000161 26884504                	mov byte [ es:di + ccbDrive ], al		; set drive
   366 00000165 26894D08                	mov word [ es:di + ccbLBN + _high ], cx		; set logical block number
   367 00000169 26895506                	mov word [ es:di + ccbLBN + _low ], dx		; set logical block number
   368 0000016D 26C6450500              	mov byte [ es:di + ccbStatus ], 00		; kill entry's value, validity
   369                                  
   370 00000172 BB0100                  	mov bx, 0001
   371                                  %if 1
   372 00000175 8DBD1400                	lea di, [ word ccbData + di ]			; buffer address
   373                                  %else
   374                                  	lea di, [ byte ccbData + di ]			; buffer address
   375                                  %endif
   376 00000179 E8(0000)                	call DevRead					; read buffer
   377                                  
   378 0000017C 07                      	pop es
   379 0000017D 5F                      	pop di
   380 0000017E 7205                    	jc readSelBuffer_08				; if error -->
   381 00000180 26C6450520              	mov byte [ es:di + ccbStatus ], (ccb_isVALID)
   382                                  
   383                                  readSelBuffer_08:
   384 00000185 585B595A5E5F5D1F07      	RestoreAllRegisters
   385 0000018E C3                      	retn
   386                                  
   387                                  
   388                                  		; Update CCB buffer, always
   389                                  		;
   390                                  		; es:di-> selected buffer
   391                                  		; All Registers Preserved
   392                                  updateCCB:
   393                                  
   394 0000018F 26F6450520              	test byte [ es:di + ccbStatus ], ( ccb_isVALID )
   395 00000194 7407                    	jz updateCCB_08					; data not valid -->
   396 00000196 26F6450540              	test byte [ es:di + ccbStatus ], ( ccb_isDIRTY )
   397 0000019B 7501                    	jnz updateChangedCCB				; data valid and changed -->
   398                                  
   399                                  updateCCB_08:
   400 0000019D C3                      	retn
   401                                  
   402                                  
   403                                  		; Update Changed CCB buffer.
   404                                  		;
   405                                  		; es:di	pointer to selected buffer
   406                                  		; All Registers Preserved
   407                                  		;
   408                                  		; CY returned in fail in write
   409                                   updateChangedCCB:
   410                                  
   411 0000019E 5589E5                  	entry
   412 000001A1 0657                    	ddef	buffer, es, di
   413                                  
   414 000001A3 061E55575652515350      	SaveAllRegisters
   415                                  
   416 000001AC BB0100                  	mov bx, 0001
   417 000001AF 268B5506                	mov dx, word [ es:di + ccbLBN + _low ]		; get sector
   418 000001B3 268B4D08                	mov cx, word [ es:di + ccbLBN + _high ]
   419 000001B7 268A4504                	mov al, byte [ es:di + ccbDrive ]		; get drive number
   420 000001BB 98                      	cbw						;  make ah = 0
   421                                  %if 1
   422 000001BC 8DBD1400                	lea di, [ word ccbData + di ]			; buffer address
   423                                  %else
   424                                  	lea di, [ byte ccbData + di ]			; buffer address
   425                                  %endif
   426 000001C0 E8(0000)                	call DevWrite					; write to disk 
   427 000001C3 720D                    	jc updateCCB_12					; if error/ fail -->
   428                                  
   429 000001C5 C47EFC                  	les di, [ _buffer + bp ]
   430 000001C8 26F6450502              	test byte [ es:di + ccbStatus ], ( ccb_isFAT )
   431 000001CD 7403                    	jz updateCCB_12					; not a FAT buffer -->
   432 000001CF E81700                  	call updateAlternateFATTables			; update FAT tables
   433                                  	; jc updateCCB_12				; if error/ fail -->
   434                                  
   435                                  updateCCB_12:
   436 000001D2 9C                      	pushf
   437 000001D3 C47EFC                  	les di, [ _buffer + bp ]
   438 000001D6 26806505BE              	and byte [ es:di + ccbStatus ], ~ ( ccb_isDIRTY + ccb_isONHOLD )
   439 000001DB 9D                      	popf						; keep flag, but kill error buffer
   440                                  
   441 000001DC 585B595A5E5F5D1F07      	RestoreAllRegisters
   442 000001E5 89EC5DC3                	return
   443                                  
   444                                  
   445                                  		; Update Alternate FAT Table
   446                                  		;
   447                                  		; Given a FAT sector address, copies the sector to the
   448                                  		; alternate FAT Table.
   449                                  		;
   450                                  		; Input:
   451                                  		; es:di-> FAT CCB Buffer
   452                                  updateAlternateFATTables:
   453                                  
   454 000001E9 5589E5                  	entry
   455 000001EC 0657                    	ddef	ccb, es, di
   456 000001EE 50                      	def	dpbNumberFat
   457 000001EF 5050                    	ddef	dpbFATSectors
   458                                  
   459 000001F1 26F6450502              	test byte [ es:di + ccbStatus ], ( ccb_isFAT )
   460 000001F6 7456                    	jz updateAlternateFATTables_22			; not a FAT designated sector -->
   461                                  
   462 000001F8 31D2                    	xor dx, dx
   463 000001FA 26C45D0D                	les bx, [ es:di + ccbDPB ]			; get assigned DPB
   464 000001FE 268B470F                	mov ax, word [ es:bx + _dpbSectorsPerFat ]
   465 00000202 09C0                    	or ax, ax
   466 00000204 7508                    	jnz updateAlternateFATTables_08
   467                                  
   468 00000206 268B5733                	mov dx, word [ es:bx + _dpbxSectorsPerFat + _high ]
   469 0000020A 268B4731                	mov ax, word [ es:bx + _dpbxSectorsPerFat + _low ]
   470                                  
   471                                  updateAlternateFATTables_08:
   472 0000020E 8946F68956F8            	stordarg _dpbFATSectors, dx, ax
   473                                  
   474 00000214 B400                    	mov ah, 0
   475 00000216 268A4708                	mov al, byte [ es:bx + _dpbNumCopiesFAT ]
   476 0000021A 8946FA                  	storarg _dpbNumberFat, ax
   477                                  
   478 0000021D C47EFC                  	getdarg es, di, _ccb
   479 00000220 268B5506                	mov dx, word [ es:di + ccbLBN + _low ]		; get original sector
   480 00000224 268B4D08                	mov cx, word [ es:di + ccbLBN + _high ]
   481 00000228 268A4504                	mov al, byte [ es:di + ccbDrive ]		; get drive number
   482 0000022C 98                      	cbw						;  make ah = 0
   483                                  %if 1
   484 0000022D 8DBD1400                	lea di, [ word ccbData + di ]			; buffer address
   485                                  %else
   486                                  	lea di, [ byte ccbData + di ]			; buffer address
   487                                  %endif
   488                                  
   489                                  updateAlternateFATTables_12:
   490 00000231 FF4EFA                  	dec word [ _dpbNumberFat + bp ]
   491 00000234 7E18                    	jle updateAlternateFATTables_22			; if not more than 1 -->
   492                                  
   493 00000236 BB0100                  	mov bx, 0001
   494 00000239 0356F6                  	add dx, word [ _dpbFATSectors + _low + bp ]	; adjust for fat size
   495 0000023C 134EF8                  	adc cx, word [ _dpbFATSectors + _high + bp ]
   496 0000023F 0657525150              	SaveRegisters es, di, dx, cx, ax
   497 00000244 E8(0000)                	call DevWrite
   498 00000247 58595A5F07              	RestoreRegisters ax, cx, dx, di, es
   499 0000024C 73E3                    	jnc updateAlternateFATTables_12
   500                                  
   501                                  updateAlternateFATTables_22:
   502 0000024E 89EC5DC3                	return
   503                                  
   504                                  
   505                                  		; Update All Drive Buffers
   506                                  		;
   507                                  		; Input:
   508                                  		; ax = drive
   509                                  updateDriveBuffers:
   510                                  
   511 00000252 36C43E[0000]            	les di, [ ss:_RxDOS_BufferList ]
   512                                  
   513                                  updDriveBuffer_04:
   514 00000257 26F6450520              	test byte [ es:di + ccbStatus ], ( ccb_isVALID )
   515 0000025C 7409                    	jz updDriveBuffer_16				; not a valid block -->
   516 0000025E 26384504                	cmp byte [ es:di + ccbDrive ], al		; compare drives
   517 00000262 7503                    	jnz updDriveBuffer_16				; not this block, try next -->
   518 00000264 E828FF                  	call updateCCB					; update block if changed
   519                                  
   520                                  updDriveBuffer_16:
   521 00000267 268B3D                  	mov di, word [ es:di + ccbNext ]
   522 0000026A 83FFFF                  	cmp di, byte -1
   523 0000026D 75E8                    	jnz updDriveBuffer_04
   524                                  
   525 0000026F C3                      	retn
   526                                  
   527                                  
   528                                  		; Update All Changed Buffers
   529                                  updateAllChangedCCBBuffers:
   530                                  
   531 00000270 9C                      	pushf
   532 00000271 061E55575652515350      	SaveAllRegisters
   533 0000027A 36C43E[0000]            	les di, [ ss:_RxDOS_BufferList ]
   534                                  
   535                                  updateAllChanged_04:
   536 0000027F 26F6450520              	test byte [ es:di + ccbStatus ], ( ccb_isVALID )
   537 00000284 7403                    	jz updateAllChanged_16				; not a valid buffer -->
   538 00000286 E806FF                  	call updateCCB					; updated buffer if req'd
   539                                  
   540                                  updateAllChanged_16:
   541 00000289 268B3D                  	mov di, word [ es:di + ccbNext ]
   542 0000028C 83FFFF                  	cmp di, byte -1
   543 0000028F 75EE                    	jnz updateAllChanged_04
   544                                  	
   545 00000291 585B595A5E5F5D1F07      	RestoreAllRegisters
   546 0000029A 9D                      	popf
   547 0000029B C3                      	retn
   548                                  
   549                                  
   550                                  		; Invalidate Buffers for Specific Drive
   551                                  		;
   552                                  		; Input:
   553                                  		; ax = drive
   554                                  invalidateBuffers:
   555                                  
   556 0000029C 36C43E[0000]            	les di, [ ss:_RxDOS_BufferList ]
   557                                  
   558                                  invBuffer_04:
   559 000002A1 26F6450520              	test byte [ es:di + ccbStatus ], ( ccb_isVALID )
   560 000002A6 740B                    	jz invBuffer_16					; not a valid buffer -->
   561 000002A8 263A4504                	cmp al, byte [ es:di + ccbDrive ]		; same drive ?
   562 000002AC 7505                    	jnz invBuffer_16				; if not --> 
   563                                  
   564 000002AE 26806505DF              	and byte [ es:di + ccbStatus ], ~ ( ccb_isVALID )
   565                                  
   566                                  invBuffer_16:
   567 000002B3 268B3D                  	mov di, word [ es:di + ccbNext ]
   568 000002B6 83FFFF                  	cmp di, byte -1
   569 000002B9 75E6                    	jnz invBuffer_04
   570                                  
   571 000002BB C3                      	retn
