     1                                  
     2                                  %if 0
     3                                  
     4                                  RxDOSFCB - RxDOS FCB processing support
     5                                  
     6                                  This product is distributed AS IS and contains no warranty
     7                                  whatsoever, including warranty of merchantability or
     8                                  fitness for a particular purpose.
     9                                  
    10                                  (c) Copyright 1990, 1999. Mike Podanoffsky
    11                                  
    12                                  This is free software; you can redistribute it and/or modify
    13                                  it under the terms of the GNU General Public License, see
    14                                  the file LICENSE.TXT.
    15                                  
    16                                  %endif
    17                                  
    18                                  	cpu 8086
    19                                  
    20                                  	segment RXDOS align=16 class=RXDOS use16 public
    21                                  	segment RXDOS
    22                                  
    23                                  %include "RXDMACRO.MAC"
     1                              <1> [list -]
    31                              <1> [list -]
    33                              <1> [list -]
    24                                  %include "RXDSTRUC.MAC"
     1                              <1> [list -]
    25                                  
    26                                  	global initFCBfromSFT
    27                                  	global buildFindFromFCB
    28                                  	global buildDTAfcbFind
    29                                  
    30                                  	extern CopyBlock
    31                                  	extern GetActualDrive
    32                                  	extern getCurrDirCluster
    33                                  	extern locateCCBPHeader
    34                                  
    35                                  	extern _RxDOS_pDTA
    36                                  
    37                                  
    38                                  		; Init FCB from an opened SFT
    39                                  		;
    40                                  		; Usage:
    41                                  		; ds:si	FCB pointer
    42                                  		; es:di	SFT pointer
    43                                  		; ax	handle assigned
    44                                  initFCBfromSFT:
    45 00000000 884418                  	mov byte [ fcbSFN + si ], al
    46 00000003 C7440E8000              	mov word [ fcbRecordSize + si ], 128
    47                                  
    48 00000008 31D2                    	xor dx, dx
    49 0000000A 895421                  	mov word [ fcbRandomRecNo + _low + si ], dx
    50 0000000D 895423                  	mov word [ fcbRandomRecNo + _high + si ], dx
    51 00000010 89540C                  	mov word [ fcbCurrBlockNo + si ], dx
    52 00000013 895420                  	mov word [ fcbCurrRecNo + si ], dx
    53 00000016 885419                  	mov byte [ fcbFlags + si ], dl
    54                                  
    55 00000019 268B5515                	mov dx, word [ es:di + sftFileSize + _high ]
    56 0000001D 268B4513                	mov ax, word [ es:di + sftFileSize + _low ]
    57 00000021 895412                  	mov word [ fcbFileSize + _high + si ], dx
    58 00000024 894410                  	mov word [ fcbFileSize + _low + si ], ax
    59                                  
    60 00000027 268B5511                	mov dx, word [ es:di + sftDate ]
    61 0000002B 268B450F                	mov ax, word [ es:di + sftTime ]
    62 0000002F 895414                  	mov word [ fcbDate + si ], dx
    63 00000032 894416                  	mov word [ fcbTime + si ], ax
    64                                  
    65 00000035 268B5509                	mov dx, word [ es:di + sftDCB + _high ]
    66 00000039 268B4507                	mov ax, word [ es:di + sftDCB + _low ]
    67 0000003D 89541C                  	mov word [ fcbDHD + _high + si ], dx
    68 00000040 89441A                  	mov word [ fcbDHD + _low + si ], ax
    69                                  
    70 00000043 268B450B                	mov ax, word [ es:di + sftBegCluster ]
    71 00000047 89441E                  	mov word [ fcbBegClusterNo + si ], ax
    72                                  
    73 0000004A 26814D020080            	or word [ es:di + sftMode ], sftENTRY_ISFCB
    74 00000050 C3                      	retn
    75                                  
    76                                  
    77                                  		; Init Find Record from an FCB
    78                                  		;
    79                                  		; Usage:
    80                                  		; stack	pointer to FCB
    81                                  		; stack	pointer to find record
    82                                  		; dx	dir offset to insert
    83                                  		;
    84                                  		; Returns:
    85                                  		; es:di	points to find record
    86                                  buildFindFromFCB:
    87                                  
    88 00000051 5589E5                  	Entry 4
    89                                  	darg	fcb
    90                                  	darg	findEntry
    91 00000054 52                      	def	dirOffset, dx
    92 00000055 50C746FC0000            	def	attributes, 0000
    93                                  
    94 0000005B 1E5653                  	saveRegisters ds, si, bx
    95                                  
    96                                  		; if we have an extended FCB
    97 0000005E C45E08                  	getdarg es, bx, _fcb
    98 00000061 26803FFF                	cmp byte [ es:bx + extSignature ], -1		; do we have an extended FCB ?
    99 00000065 750E                    	jnz buildFindFromFCB_08				; no -->
   100                                  
   101 00000067 268A4706                	mov al, byte [ es:bx + extAttribute ]		; get attributes from extended FCB
   102 0000006B 8846FC                  	mov byte [ _attributes + bp ], al
   103                                  %if 1
   104 0000006E 81C30700                	add bx, word sizeExtendedFCBHdr
   105                                  %else
   106                                  	add bx, byte sizeExtendedFCBHdr
   107                                  %endif
   108 00000072 895E08                  	mov word [ _fcb + _pointer + bp ], bx		; adjust to FCB address
   109                                  
   110                                  		; if we have a normal FCB
   111                                  buildFindFromFCB_08:
   112                                  	push ds
   112                              <1> %ifidni %1,-
   112                              <1> 
   112                              <1> %elifidni %1,ip
   112                              <1>  o16
   112                              <1>  call %%next
   112                              <1> %%next:
   112                              <1> %elifidni %1,eip
   112                              <1>  o32
   112                              <1>  call %%next
   112                              <1> %%next:
   112                              <1> %elifidni %1,f
   112                              <1>  pushf
   112                              <1> %elifidni %1,fw
   112                              <1>  pushfw
   112                              <1> %elifidni %1,fd
   112                              <1>  pushfd
   112                              <1> %else
   112 00000075 1E                  <1>  push %1
   112                              <1> %endif
   113 00000076 061F                    	setDS es
   114                                  %if 1
   115 00000078 8DB70100                	lea si, [ word fcbName + bx ]
   116                                  %else
   117                                  	lea si, [ byte fcbName + bx ]
   118                                  %endif
   119                                  
   120 0000007C C47E04                  	getdarg es, di, _findEntry
   121                                  %if 1
   122 0000007F 8DBD0100                	lea di, [ word findSrchName + di ]
   123                                  %else
   124                                  	lea di, [ byte findSrchName + di ]
   125                                  %endif
   126 00000083 B90B00                  	mov cx, sizeFILENAME
   127                                  
   128                                  buildFindFromFCB_12:
   129 00000086 AC                      	lodsb						; get character
   130 00000087 3C6172063C7B730224-     	_upperCase al					; upper case
   130 00000090 DF08C0             
   131 00000093 AA                      	stosb
   132 00000094 E2F0                    	loop buildFindFromFCB_12
   133                                  
   134 00000096 1F                      	pop ds
   135 00000097 C45E08                  	getdarg es, bx, _fcb
   136                                  	push word [ es:bx + fcbDrive ]
   136                              <1> %ifidni %1,-
   136                              <1> 
   136                              <1> %elifidni %1,ip
   136                              <1>  o16
   136                              <1>  call %%next
   136                              <1> %%next:
   136                              <1> %elifidni %1,eip
   136                              <1>  o32
   136                              <1>  call %%next
   136                              <1> %%next:
   136                              <1> %elifidni %1,f
   136                              <1>  pushf
   136                              <1> %elifidni %1,fw
   136                              <1>  pushfw
   136                              <1> %elifidni %1,fd
   136                              <1>  pushfd
   136                              <1> %else
   136 0000009A 26FF37              <1>  push %1
   136                              <1> %endif
   137 0000009D E8(0000)                	call GetActualDrive				; correct drive
   138 000000A0 E8(0000)                	call getCurrDirCluster
   139                                  
   140 000000A3 C47E04                  	getdarg es, di, _findEntry
   141 000000A6 2689550F                	mov word [ es:di + findDirBegCluster + _low ], dx
   142 000000AA 26894D11                	mov word [ es:di + findDirBegCluster + _high ], cx
   143 000000AE 268805                  	mov byte [ es:di + findSrchDrive ], al		; store drive
   144                                  
   145 000000B1 8A46FC                  	mov al, byte [ _attributes + bp ]
   146 000000B4 2688450C                	mov byte [ es:di + findSrchAttributes ], al
   147                                  
   148 000000B8 8B46FE                  	mov ax, word [ _dirOffset + bp ]
   149 000000BB 2689450D                	mov word [ es:di + findDirEntry ], ax
   150                                  
   151 000000BF 5B5E1F                  	restoreRegisters bx, si, ds
   152 000000C2 89EC5DC20800            	Return
   153                                  
   154                                  
   155                                  		; Build DTA record from FCB/find entry
   156                                  		;
   157                                  		; Usage:
   158                                  		; stack	pointer to FCB
   159                                  		; stack	pointer to find record
   160                                  		;
   161                                  		; Returns:
   162                                  		; es:di	points to find record
   163                                  buildDTAfcbFind:
   164 000000C8 5589E5                  	Entry 4
   165                                  	darg	fcb
   166                                  	darg	findEntry
   167                                  
   168 000000CB 161F                    	currSegment ds				; point to current segment
   169 000000CD C53E[0000]              	lds di, [ _RxDOS_pDTA ]			; build DTA area
   170                                  
   171                                  		; extended FCB passed ?
   172 000000D1 C45E08                  	getdarg es, bx, _fcb			; FCB address
   173 000000D4 26803FFF                	cmp byte [ es:bx + extSignature ], -1
   174 000000D8 7510                    	jnz _buildDTAfcbFind_12			; if not an extended FCB -->
   175                                  
   176                                  	push es
   176                              <1> %ifidni %1,-
   176                              <1> 
   176                              <1> %elifidni %1,ip
   176                              <1>  o16
   176                              <1>  call %%next
   176                              <1> %%next:
   176                              <1> %elifidni %1,eip
   176                              <1>  o32
   176                              <1>  call %%next
   176                              <1> %%next:
   176                              <1> %elifidni %1,f
   176                              <1>  pushf
   176                              <1> %elifidni %1,fw
   176                              <1>  pushfw
   176                              <1> %elifidni %1,fd
   176                              <1>  pushfd
   176                              <1> %else
   176 000000DA 06                  <1>  push %1
   176                              <1> %endif
   177                                  	push bx					; extended FCB
   177                              <1> %ifidni %1,-
   177                              <1> 
   177                              <1> %elifidni %1,ip
   177                              <1>  o16
   177                              <1>  call %%next
   177                              <1> %%next:
   177                              <1> %elifidni %1,eip
   177                              <1>  o32
   177                              <1>  call %%next
   177                              <1> %%next:
   177                              <1> %elifidni %1,f
   177                              <1>  pushf
   177                              <1> %elifidni %1,fw
   177                              <1>  pushfw
   177                              <1> %elifidni %1,fd
   177                              <1>  pushfd
   177                              <1> %else
   177 000000DB 53                  <1>  push %1
   177                              <1> %endif
   178                                  	push ds
   178                              <1> %ifidni %1,-
   178                              <1> 
   178                              <1> %elifidni %1,ip
   178                              <1>  o16
   178                              <1>  call %%next
   178                              <1> %%next:
   178                              <1> %elifidni %1,eip
   178                              <1>  o32
   178                              <1>  call %%next
   178                              <1> %%next:
   178                              <1> %elifidni %1,f
   178                              <1>  pushf
   178                              <1> %elifidni %1,fw
   178                              <1>  pushfw
   178                              <1> %elifidni %1,fd
   178                              <1>  pushfd
   178                              <1> %else
   178 000000DC 1E                  <1>  push %1
   178                              <1> %endif
   179                                  	push di					; DTA
   179                              <1> %ifidni %1,-
   179                              <1> 
   179                              <1> %elifidni %1,ip
   179                              <1>  o16
   179                              <1>  call %%next
   179                              <1> %%next:
   179                              <1> %elifidni %1,eip
   179                              <1>  o32
   179                              <1>  call %%next
   179                              <1> %%next:
   179                              <1> %elifidni %1,f
   179                              <1>  pushf
   179                              <1> %elifidni %1,fw
   179                              <1>  pushfw
   179                              <1> %elifidni %1,fd
   179                              <1>  pushfd
   179                              <1> %else
   179 000000DD 57                  <1>  push %1
   179                              <1> %endif
   180 000000DE B90700                  	mov cx, sizeExtendedFCBHdr
   181 000000E1 E8(0000)                	call CopyBlock				; copy 
   182 000000E4 83C707                  	add di, byte sizeExtendedFCBHdr		; DTA pointer
   183 000000E7 83C307                  	add bx, byte sizeExtendedFCBHdr		; FCB pointer
   184                                  
   185                                  		; copy directory entry
   186                                  _buildDTAfcbFind_12:
   187                                  	push es
   187                              <1> %ifidni %1,-
   187                              <1> 
   187                              <1> %elifidni %1,ip
   187                              <1>  o16
   187                              <1>  call %%next
   187                              <1> %%next:
   187                              <1> %elifidni %1,eip
   187                              <1>  o32
   187                              <1>  call %%next
   187                              <1> %%next:
   187                              <1> %elifidni %1,f
   187                              <1>  pushf
   187                              <1> %elifidni %1,fw
   187                              <1>  pushfw
   187                              <1> %elifidni %1,fd
   187                              <1>  pushfd
   187                              <1> %else
   187 000000EA 06                  <1>  push %1
   187                              <1> %endif
   188                                  	push bx					; address of FCB (adjusted)
   188                              <1> %ifidni %1,-
   188                              <1> 
   188                              <1> %elifidni %1,ip
   188                              <1>  o16
   188                              <1>  call %%next
   188                              <1> %%next:
   188                              <1> %elifidni %1,eip
   188                              <1>  o32
   188                              <1>  call %%next
   188                              <1> %%next:
   188                              <1> %elifidni %1,f
   188                              <1>  pushf
   188                              <1> %elifidni %1,fw
   188                              <1>  pushfw
   188                              <1> %elifidni %1,fd
   188                              <1>  pushfd
   188                              <1> %else
   188 000000EB 53                  <1>  push %1
   188                              <1> %endif
   189                                  
   190 000000EC C47604                  	getdarg es, si, _findEntry
   191 000000EF 268A04                  	mov al, byte [ es:si + findSrchDrive ]
   192 000000F2 8805                    	mov byte [ findSrchDrive + di ], al
   193 000000F4 FE05                    	inc byte [ findSrchDrive + di ]		; FCB drive is 01 ...
   194                                  
   195                                  %if 1
   196 000000F6 8DBD0100                	lea di, [ word findSrchName + di ]
   197                                  %else
   198                                  	lea di, [ byte findSrchName + di ]
   199                                  %endif
   200                                  	push di					; where to copy dir structure
   200                              <1> %ifidni %1,-
   200                              <1> 
   200                              <1> %elifidni %1,ip
   200                              <1>  o16
   200                              <1>  call %%next
   200                              <1> %%next:
   200                              <1> %elifidni %1,eip
   200                              <1>  o32
   200                              <1>  call %%next
   200                              <1> %%next:
   200                              <1> %elifidni %1,f
   200                              <1>  pushf
   200                              <1> %elifidni %1,fw
   200                              <1>  pushfw
   200                              <1> %elifidni %1,fd
   200                              <1>  pushfd
   200                              <1> %else
   200 000000FA 57                  <1>  push %1
   200                              <1> %endif
   201 000000FB 268B7413                	mov si, word [ es:si + findCCBPointer ]
   202 000000FF E8(0000)                	call locateCCBPHeader			; get buffers segment
   203 00000102 5F                      	pop di					; restore di (DTA pointer)
   204                                  
   205                                  	push es
   205                              <1> %ifidni %1,-
   205                              <1> 
   205                              <1> %elifidni %1,ip
   205                              <1>  o16
   205                              <1>  call %%next
   205                              <1> %%next:
   205                              <1> %elifidni %1,eip
   205                              <1>  o32
   205                              <1>  call %%next
   205                              <1> %%next:
   205                              <1> %elifidni %1,f
   205                              <1>  pushf
   205                              <1> %elifidni %1,fw
   205                              <1>  pushfw
   205                              <1> %elifidni %1,fd
   205                              <1>  pushfd
   205                              <1> %else
   205 00000103 06                  <1>  push %1
   205                              <1> %endif
   206                                  	push si					; from directory entry
   206                              <1> %ifidni %1,-
   206                              <1> 
   206                              <1> %elifidni %1,ip
   206                              <1>  o16
   206                              <1>  call %%next
   206                              <1> %%next:
   206                              <1> %elifidni %1,eip
   206                              <1>  o32
   206                              <1>  call %%next
   206                              <1> %%next:
   206                              <1> %elifidni %1,f
   206                              <1>  pushf
   206                              <1> %elifidni %1,fw
   206                              <1>  pushfw
   206                              <1> %elifidni %1,fd
   206                              <1>  pushfd
   206                              <1> %else
   206 00000104 56                  <1>  push %1
   206                              <1> %endif
   207                                  	push ds
   207                              <1> %ifidni %1,-
   207                              <1> 
   207                              <1> %elifidni %1,ip
   207                              <1>  o16
   207                              <1>  call %%next
   207                              <1> %%next:
   207                              <1> %elifidni %1,eip
   207                              <1>  o32
   207                              <1>  call %%next
   207                              <1> %%next:
   207                              <1> %elifidni %1,f
   207                              <1>  pushf
   207                              <1> %elifidni %1,fw
   207                              <1>  pushfw
   207                              <1> %elifidni %1,fd
   207                              <1>  pushfd
   207                              <1> %else
   207 00000105 1E                  <1>  push %1
   207                              <1> %endif
   208                                  	push di					; to DTA
   208                              <1> %ifidni %1,-
   208                              <1> 
   208                              <1> %elifidni %1,ip
   208                              <1>  o16
   208                              <1>  call %%next
   208                              <1> %%next:
   208                              <1> %elifidni %1,eip
   208                              <1>  o32
   208                              <1>  call %%next
   208                              <1> %%next:
   208                              <1> %elifidni %1,f
   208                              <1>  pushf
   208                              <1> %elifidni %1,fw
   208                              <1>  pushfw
   208                              <1> %elifidni %1,fd
   208                              <1>  pushfd
   208                              <1> %else
   208 00000106 57                  <1>  push %1
   208                              <1> %endif
   209 00000107 B92000                  	mov cx, sizeDIRENTRY
   210 0000010A E8(0000)                	call CopyBlock				; copy dir entry
   211                                  
   212                                  		; update FCB for search next
   213 0000010D 5B                      	pop bx
   214 0000010E 1F                      	pop ds
   215 0000010F C47604                  	getdarg es, si, _findEntry
   216 00000112 268B4C0D                	mov cx, word [ es:si + findDirEntry ]
   217 00000116 894F20                  	mov word [ fcbCurrRecNo + bx ], cx
   218 00000119 268B540F                	mov dx, word [ es:si + findDirBegCluster + _low ]
   219 0000011D 89571E                  	mov word [ fcbBegClusterNo + bx ], dx
   220                                  
   221 00000120 161F                    	currSegment ds				; point to current segment
   222 00000122 F8                      	clc
   223                                  
   224 00000123 89EC5DC20800            	Return
